{
    "dev": {
        "app_function": "request_handler.app",
        "profile_name": "default",
        "aws_region": "us-east-1",
        "project_name": "flask_server",
        "runtime": "python3.6",
        "s3_bucket": "freshman2freshgrad-zappa-east-1",
        "manage_roles": true,
        "role_name": "ZappaFlaskRole",
        "role_arn": "arn:aws:iam::815450401881:role/ZappaFlaskRole",
        "certificate_arn": "arn:aws:acm:us-east-1:815450501881:certificate/4d97fd82-de8a-44c0-8ceb-2585ddbc07c6",
        "domain": "api.freshman2freshgrad.com",
        "cors": true
    }
}

