address,alexa_rank,city,company_name,description,domain,employees,exchange,industry,linkedin_url,revenue,ticker,year_founded,Image URL
410 Terry Ave N,14,Seattle,"Amazon.com, Inc.","Amazon.com, Inc. offers a range of products and services through its Websites. The Company operates through three segments: North America, International and Amazon Web Services (AWS). The Company's products include merchandise and content that it purchases for resale from vendors and those offered by third-party sellers. It also manufactures and sells electronic devices. The Company, through its subsidiary, Whole Foods Market, Inc., offers healthy and organic food and staples across its stores. The Company also offers a range of products like whole trade bananas, organic avocados, organic large brown eggs, organic responsibly-farmed salmon and tilapia, organic baby kale and baby lettuce, animal-welfare-rated 85% lean ground beef, creamy and crunchy almond butter, organic gala and fuji apples, organic rotisserie chicken.",amazon.com,"Over 10,000",NASDAQ,"Catalog And Mail Order Houses, Internet",https://www.linkedin.com/company/amazon,> 1B,AMZN,1994,https://www.smartcitiesworld.net/AcuCustom/Sitename/DAM/020/Amazon_Seattle_AdobeStock_243167433_1_rm.jpg
1 Apple Park Way,59,Cupertino,"Apple, Inc.","Apple Inc. designs, manufactures and markets mobile communication and media devices, personal computers and portable digital music players. The Company sells a range of related software, services, accessories, networking solutions, and third-party digital content and applications. The Company's segments include the Americas, Europe, Greater China, Japan and Rest of Asia Pacific. The Americas segment includes both North and South America. The Europe segment includes European countries, India, the Middle East and Africa. The Greater China segment includes China, Hong Kong and Taiwan. The Rest of Asia Pacific segment includes Australia and the Asian countries not included in the Company's other operating segments. Its products and services include iPhone, iPad, Mac, iPod, Apple Watch, Apple TV, a portfolio of consumer and professional software applications, iPhone OS (iOS), OS X and watchOS operating systems, iCloud, Apple Pay and a range of accessory, service and support offerings.",apple.com,"Over 10,000",NASDAQ,"Computer And Office Equipment, Consumer Electronics",https://www.linkedin.com/company/apple,> 1B,AAPL,1976,https://www.worldpropertyjournal.com/news-assets/Apple-headquarters-nki.jpg
1 Dell Way,398,Round Rock,Dell,"Michael Dell founded the company in 1984 from his Texas dorm room, starting a new computer business under the name of PC's Limited. Today Dell is the world's #3 supplier of PCs (behind #1 HP and #2 Lenovo). Dell provides a broad range of technology products for the consumer, education, enterprise, and government sectors. In addition to its line of desktop and notebook PCs, Dell offers network servers, data storage systems, printers, Ethernet switches, and peripherals, such as displays and projectors. Its 25-year history of running as a public company came to end in September when shareholders voted in favor of Michael Dell and Silver Lake Partners' $25 billion bid to take Dell private.",dell.com,"Over 10,000",NYSE,"Electronic Computers, Information Technology And Services",https://www.linkedin.com/company/dell,> 1B,DELL,1996,https://media.glassdoor.com/l/b0/71/8c/c8/hq.jpg
